{"failedCount":0,"prefixedPath":"src\/test\/java\/features\/queryParameterAPI.feature","packageQualifiedName":"src.test.java.features.queryParameterAPI","loopIndex":-1,"relativePath":"src\/test\/java\/features\/queryParameterAPI.feature","scenarioResults":[{"sectionIndex":0,"stepResults":[{"result":{"nanos":29979100,"millis":29.9791,"status":"passed"},"step":{"line":3,"prefix":"*","index":0,"text":"def query = {status:'active'}"}},{"result":{"nanos":14277600,"millis":14.2776,"status":"passed"},"step":{"line":4,"prefix":"Given","index":1,"text":"url apiURL+'\/public\/v1\/users'"}},{"result":{"nanos":8253500,"millis":8.2535,"status":"passed"},"step":{"line":5,"prefix":"And","index":2,"text":"params query"}},{"result":{"nanos":1127345600,"millis":1127.3456,"status":"passed"},"step":{"line":6,"prefix":"When","index":3,"text":"method GET"},"stepLog":"08:37:33.135 request:\n1 > GET https:\/\/gorest.co.in\/public\/v1\/users?status=active\n1 > Host: gorest.co.in\n1 > Connection: Keep-Alive\n1 > User-Agent: Apache-HttpClient\/4.5.13 (Java\/11.0.11)\n1 > Accept-Encoding: gzip,deflate\n\n\n08:37:33.851 response time in milliseconds: 704\n1 < 200\n1 < Server: nginx\n1 < Date: Thu, 23 Dec 2021 03:07:32 GMT\n1 < Content-Type: application\/json; charset=utf-8\n1 < Transfer-Encoding: chunked\n1 < Connection: keep-alive\n1 < Vary: Accept-Encoding\n1 < Vary: Origin\n1 < X-Frame-Options: SAMEORIGIN\n1 < X-XSS-Protection: 0\n1 < X-Content-Type-Options: nosniff\n1 < X-Download-Options: noopen\n1 < X-Permitted-Cross-Domain-Policies: none\n1 < Referrer-Policy: strict-origin-when-cross-origin\n1 < ETag: W\/\"bfffbf7db6b332983a5e59bda08b1394\"\n1 < Cache-Control: max-age=0, private, must-revalidate\n1 < X-Request-Id: 3145ce07-7564-4b50-a4ad-25b31362579f\n1 < X-Runtime: 0.007853\n1 < Strict-Transport-Security: max-age=63072000; includeSubDomains\n{\"meta\":{\"pagination\":{\"total\":1267,\"pages\":64,\"page\":1,\"limit\":20,\"links\":{\"previous\":null,\"current\":\"https:\/\/gorest.co.in\/public\/v1\/users?page=1\",\"next\":\"https:\/\/gorest.co.in\/public\/v1\/users?page=2\"}}},\"data\":[{\"id\":2736,\"name\":\"Bikram\",\"email\":\"Iy92PTP3c@fool.com\",\"gender\":\"male\",\"status\":\"active\"},{\"id\":2737,\"name\":\"Sulina\",\"email\":\"gq27eoxz45qsgjq@gmail.com\",\"gender\":\"female\",\"status\":\"active\"},{\"id\":2743,\"name\":\"Sulina\",\"email\":\"I2kqL8oFa@gmail.com\",\"gender\":\"female\",\"status\":\"active\"},{\"id\":32,\"name\":\"Chidaakaash Mehrotra\",\"email\":\"mehrotra_chidaakaash@sporer.com\",\"gender\":\"female\",\"status\":\"active\"},{\"id\":36,\"name\":\"Mrs. Daksha Prajapat\",\"email\":\"prajapat_mrs_daksha@zieme-casper.info\",\"gender\":\"female\",\"status\":\"active\"},{\"id\":47,\"name\":\"Meghnath Banerjee\",\"email\":\"meghnath_banerjee@maggio.info\",\"gender\":\"female\",\"status\":\"active\"},{\"id\":49,\"name\":\"Mani Pilla\",\"email\":\"pilla_mani@gerlach-ohara.io\",\"gender\":\"female\",\"status\":\"active\"},{\"id\":57,\"name\":\"Mandakini Butt\",\"email\":\"butt_mandakini@hackett.io\",\"gender\":\"male\",\"status\":\"active\"},{\"id\":58,\"name\":\"Rageshwari Gowda III\",\"email\":\"iii_gowda_rageshwari@oconner.org\",\"gender\":\"male\",\"status\":\"active\"},{\"id\":60,\"name\":\"Chatura Namboothiri\",\"email\":\"chatura_namboothiri@terry.io\",\"gender\":\"male\",\"status\":\"active\"},{\"id\":61,\"name\":\"Chatura Trivedi\",\"email\":\"chatura_trivedi@beatty-davis.name\",\"gender\":\"male\",\"status\":\"active\"},{\"id\":62,\"name\":\"Miss Shwet Nair\",\"email\":\"nair_shwet_miss@hettinger.org\",\"gender\":\"male\",\"status\":\"active\"},{\"id\":63,\"name\":\"Prof. Rageshwari Dwivedi\",\"email\":\"rageshwari_dwivedi_prof@mann.biz\",\"gender\":\"female\",\"status\":\"active\"},{\"id\":64,\"name\":\"Aasha Gowda IV\",\"email\":\"iv_aasha_gowda@howell-boehm.org\",\"gender\":\"female\",\"status\":\"active\"},{\"id\":66,\"name\":\"Vidhur Dhawan\",\"email\":\"vidhur_dhawan@jakubowski.name\",\"gender\":\"male\",\"status\":\"active\"},{\"id\":67,\"name\":\"Chakradhar Mehra CPA\",\"email\":\"chakradhar_mehra_cpa@goyette.co\",\"gender\":\"male\",\"status\":\"active\"},{\"id\":69,\"name\":\"Vaijayanti Marar\",\"email\":\"marar_vaijayanti@williamson-bauch.co\",\"gender\":\"female\",\"status\":\"active\"},{\"id\":70,\"name\":\"Suma Khatri Sr.\",\"email\":\"khatri_sr_suma@oconnell.biz\",\"gender\":\"female\",\"status\":\"active\"},{\"id\":71,\"name\":\"Karan Gowda\",\"email\":\"karan_gowda@roob.co\",\"gender\":\"male\",\"status\":\"active\"},{\"id\":1628,\"name\":\"Karina\",\"email\":\"karinaK@mail.ru\",\"gender\":\"female\",\"status\":\"active\"}]}\n"},{"result":{"nanos":29100,"millis":0.0291,"status":"passed"},"step":{"line":7,"prefix":"Then","index":4,"text":"status 200"}}],"executorName":"main","line":2,"name":"Verify all the users with status equal to active","description":"","durationMillis":1179.8849,"startTime":1640228852549,"failed":false,"refId":"[1:2]","endTime":1640228853851,"exampleIndex":-1}],"callDepth":0,"name":"GET API with query parameter","description":"","resultDate":"2021-12-23 08:37:33 AM","durationMillis":1179.8849,"passedCount":1}