{"failedCount":0,"prefixedPath":"src\/test\/java\/features\/queryParameterAPI.feature","packageQualifiedName":"src.test.java.features.queryParameterAPI","loopIndex":-1,"relativePath":"src\/test\/java\/features\/queryParameterAPI.feature","scenarioResults":[{"sectionIndex":0,"stepResults":[{"result":{"nanos":25275400,"millis":25.2754,"status":"passed"},"step":{"line":3,"prefix":"*","index":0,"text":"def query = {status:'active',gender:'male'}"}},{"result":{"nanos":8589000,"millis":8.589,"status":"passed"},"step":{"line":5,"prefix":"Given","index":1,"text":"url apiURL+'\/public\/v1\/users'"}},{"result":{"nanos":5527300,"millis":5.5273,"status":"passed"},"step":{"line":6,"prefix":"And","index":2,"text":"params query"}},{"result":{"nanos":1131942400,"millis":1131.9424,"status":"passed"},"step":{"line":7,"prefix":"When","index":3,"text":"method GET"},"stepLog":"08:39:00.499 request:\n1 > GET https:\/\/gorest.co.in\/public\/v1\/users?gender=male&status=active\n1 > Host: gorest.co.in\n1 > Connection: Keep-Alive\n1 > User-Agent: Apache-HttpClient\/4.5.13 (Java\/11.0.11)\n1 > Accept-Encoding: gzip,deflate\n\n\n08:39:01.300 response time in milliseconds: 801\n1 < 200\n1 < Server: nginx\n1 < Date: Thu, 23 Dec 2021 03:08:59 GMT\n1 < Content-Type: application\/json; charset=utf-8\n1 < Transfer-Encoding: chunked\n1 < Connection: keep-alive\n1 < Vary: Accept-Encoding\n1 < Vary: Origin\n1 < X-Frame-Options: SAMEORIGIN\n1 < X-XSS-Protection: 0\n1 < X-Content-Type-Options: nosniff\n1 < X-Download-Options: noopen\n1 < X-Permitted-Cross-Domain-Policies: none\n1 < Referrer-Policy: strict-origin-when-cross-origin\n1 < ETag: W\/\"9b862e3bfb7f08f0be9d6830beca2347\"\n1 < Cache-Control: max-age=0, private, must-revalidate\n1 < X-Request-Id: ec45b74f-76eb-4c1e-8477-9ac1daebd4ad\n1 < X-Runtime: 0.008188\n1 < Strict-Transport-Security: max-age=63072000; includeSubDomains\n{\"meta\":{\"pagination\":{\"total\":741,\"pages\":38,\"page\":1,\"limit\":20,\"links\":{\"previous\":null,\"current\":\"https:\/\/gorest.co.in\/public\/v1\/users?page=1\",\"next\":\"https:\/\/gorest.co.in\/public\/v1\/users?page=2\"}}},\"data\":[{\"id\":2736,\"name\":\"Bikram\",\"email\":\"Iy92PTP3c@fool.com\",\"gender\":\"male\",\"status\":\"active\"},{\"id\":57,\"name\":\"Mandakini Butt\",\"email\":\"butt_mandakini@hackett.io\",\"gender\":\"male\",\"status\":\"active\"},{\"id\":58,\"name\":\"Rageshwari Gowda III\",\"email\":\"iii_gowda_rageshwari@oconner.org\",\"gender\":\"male\",\"status\":\"active\"},{\"id\":60,\"name\":\"Chatura Namboothiri\",\"email\":\"chatura_namboothiri@terry.io\",\"gender\":\"male\",\"status\":\"active\"},{\"id\":61,\"name\":\"Chatura Trivedi\",\"email\":\"chatura_trivedi@beatty-davis.name\",\"gender\":\"male\",\"status\":\"active\"},{\"id\":62,\"name\":\"Miss Shwet Nair\",\"email\":\"nair_shwet_miss@hettinger.org\",\"gender\":\"male\",\"status\":\"active\"},{\"id\":66,\"name\":\"Vidhur Dhawan\",\"email\":\"vidhur_dhawan@jakubowski.name\",\"gender\":\"male\",\"status\":\"active\"},{\"id\":67,\"name\":\"Chakradhar Mehra CPA\",\"email\":\"chakradhar_mehra_cpa@goyette.co\",\"gender\":\"male\",\"status\":\"active\"},{\"id\":71,\"name\":\"Karan Gowda\",\"email\":\"karan_gowda@roob.co\",\"gender\":\"male\",\"status\":\"active\"},{\"id\":1629,\"name\":\"Test 22\/12\/2021 09:28:54\",\"email\":\"test.20211222092854311@somedomain.com\",\"gender\":\"male\",\"status\":\"active\"},{\"id\":9,\"name\":\"Chandra Khatri tvtvg3y\",\"email\":\"chandra_khatri@schoen.io\",\"gender\":\"male\",\"status\":\"active\"},{\"id\":2109,\"name\":\"Tenali Ramakrishna\",\"email\":\"abraKadabra3@ice.com\",\"gender\":\"male\",\"status\":\"active\"},{\"id\":2112,\"name\":\"Tarun\",\"email\":\"wellnotgonnasay@gmail.com\",\"gender\":\"male\",\"status\":\"active\"},{\"id\":13,\"name\":\"The Hon. Arnesh Iyerv2\",\"email\":\"iyer_arnesh_hon_the@lockman.com\",\"gender\":\"male\",\"status\":\"active\"},{\"id\":2126,\"name\":\"Tenali Ramakrishna\",\"email\":\"abraKadabra5@ice.com\",\"gender\":\"male\",\"status\":\"active\"},{\"id\":2127,\"name\":\"Tenali Ramakrishna\",\"email\":\"abraKadabra6@ice.com\",\"gender\":\"male\",\"status\":\"active\"},{\"id\":26,\"name\":\"Washington Luis Cabral da Silva\",\"email\":\"wluissilva@live.com\",\"gender\":\"male\",\"status\":\"active\"},{\"id\":40,\"name\":\"Nettie Pfannerstill\",\"email\":\"Brianne9@yahoo.com\",\"gender\":\"male\",\"status\":\"active\"},{\"id\":2144,\"name\":\"Ola\",\"email\":\"Ola@sds.om\",\"gender\":\"male\",\"status\":\"active\"},{\"id\":2148,\"name\":\"Poxos\",\"email\":\"Poxos@Gmaill.com\",\"gender\":\"male\",\"status\":\"active\"}]}\n"},{"result":{"nanos":18500,"millis":0.0185,"status":"passed"},"step":{"line":8,"prefix":"Then","index":4,"text":"status 200"}},{"result":{"nanos":31687200,"millis":31.6872,"status":"passed"},"step":{"line":9,"prefix":"*","index":5,"text":"print response"},"stepLog":"08:39:01.323 [print] {\n  \"meta\": {\n    \"pagination\": {\n      \"total\": 741,\n      \"pages\": 38,\n      \"page\": 1,\n      \"limit\": 20,\n      \"links\": {\n        \"previous\": null,\n        \"current\": \"https:\/\/gorest.co.in\/public\/v1\/users?page=1\",\n        \"next\": \"https:\/\/gorest.co.in\/public\/v1\/users?page=2\"\n      }\n    }\n  },\n  \"data\": [\n    {\n      \"id\": 2736,\n      \"name\": \"Bikram\",\n      \"email\": \"Iy92PTP3c@fool.com\",\n      \"gender\": \"male\",\n      \"status\": \"active\"\n    },\n    {\n      \"id\": 57,\n      \"name\": \"Mandakini Butt\",\n      \"email\": \"butt_mandakini@hackett.io\",\n      \"gender\": \"male\",\n      \"status\": \"active\"\n    },\n    {\n      \"id\": 58,\n      \"name\": \"Rageshwari Gowda III\",\n      \"email\": \"iii_gowda_rageshwari@oconner.org\",\n      \"gender\": \"male\",\n      \"status\": \"active\"\n    },\n    {\n      \"id\": 60,\n      \"name\": \"Chatura Namboothiri\",\n      \"email\": \"chatura_namboothiri@terry.io\",\n      \"gender\": \"male\",\n      \"status\": \"active\"\n    },\n    {\n      \"id\": 61,\n      \"name\": \"Chatura Trivedi\",\n      \"email\": \"chatura_trivedi@beatty-davis.name\",\n      \"gender\": \"male\",\n      \"status\": \"active\"\n    },\n    {\n      \"id\": 62,\n      \"name\": \"Miss Shwet Nair\",\n      \"email\": \"nair_shwet_miss@hettinger.org\",\n      \"gender\": \"male\",\n      \"status\": \"active\"\n    },\n    {\n      \"id\": 66,\n      \"name\": \"Vidhur Dhawan\",\n      \"email\": \"vidhur_dhawan@jakubowski.name\",\n      \"gender\": \"male\",\n      \"status\": \"active\"\n    },\n    {\n      \"id\": 67,\n      \"name\": \"Chakradhar Mehra CPA\",\n      \"email\": \"chakradhar_mehra_cpa@goyette.co\",\n      \"gender\": \"male\",\n      \"status\": \"active\"\n    },\n    {\n      \"id\": 71,\n      \"name\": \"Karan Gowda\",\n      \"email\": \"karan_gowda@roob.co\",\n      \"gender\": \"male\",\n      \"status\": \"active\"\n    },\n    {\n      \"id\": 1629,\n      \"name\": \"Test 22\/12\/2021 09:28:54\",\n      \"email\": \"test.20211222092854311@somedomain.com\",\n      \"gender\": \"male\",\n      \"status\": \"active\"\n    },\n    {\n      \"id\": 9,\n      \"name\": \"Chandra Khatri tvtvg3y\",\n      \"email\": \"chandra_khatri@schoen.io\",\n      \"gender\": \"male\",\n      \"status\": \"active\"\n    },\n    {\n      \"id\": 2109,\n      \"name\": \"Tenali Ramakrishna\",\n      \"email\": \"abraKadabra3@ice.com\",\n      \"gender\": \"male\",\n      \"status\": \"active\"\n    },\n    {\n      \"id\": 2112,\n      \"name\": \"Tarun\",\n      \"email\": \"wellnotgonnasay@gmail.com\",\n      \"gender\": \"male\",\n      \"status\": \"active\"\n    },\n    {\n      \"id\": 13,\n      \"name\": \"The Hon. Arnesh Iyerv2\",\n      \"email\": \"iyer_arnesh_hon_the@lockman.com\",\n      \"gender\": \"male\",\n      \"status\": \"active\"\n    },\n    {\n      \"id\": 2126,\n      \"name\": \"Tenali Ramakrishna\",\n      \"email\": \"abraKadabra5@ice.com\",\n      \"gender\": \"male\",\n      \"status\": \"active\"\n    },\n    {\n      \"id\": 2127,\n      \"name\": \"Tenali Ramakrishna\",\n      \"email\": \"abraKadabra6@ice.com\",\n      \"gender\": \"male\",\n      \"status\": \"active\"\n    },\n    {\n      \"id\": 26,\n      \"name\": \"Washington Luis Cabral da Silva\",\n      \"email\": \"wluissilva@live.com\",\n      \"gender\": \"male\",\n      \"status\": \"active\"\n    },\n    {\n      \"id\": 40,\n      \"name\": \"Nettie Pfannerstill\",\n      \"email\": \"Brianne9@yahoo.com\",\n      \"gender\": \"male\",\n      \"status\": \"active\"\n    },\n    {\n      \"id\": 2144,\n      \"name\": \"Ola\",\n      \"email\": \"Ola@sds.om\",\n      \"gender\": \"male\",\n      \"status\": \"active\"\n    },\n    {\n      \"id\": 2148,\n      \"name\": \"Poxos\",\n      \"email\": \"Poxos@Gmaill.com\",\n      \"gender\": \"male\",\n      \"status\": \"active\"\n    }\n  ]\n}\n \n"}],"executorName":"main","line":2,"name":"Verify all the users with status equal to active","description":"","durationMillis":1203.0398,"startTime":1640228940040,"failed":false,"refId":"[1:2]","endTime":1640228941323,"exampleIndex":-1}],"callDepth":0,"name":"GET API with query parameter","description":"","resultDate":"2021-12-23 08:39:01 AM","durationMillis":1203.0398,"passedCount":1}