{"failedCount":0,"prefixedPath":"src\/test\/java\/features\/queryParameterAPI.feature","packageQualifiedName":"src.test.java.features.queryParameterAPI","loopIndex":-1,"relativePath":"src\/test\/java\/features\/queryParameterAPI.feature","scenarioResults":[{"sectionIndex":1,"stepResults":[{"result":{"nanos":29117300,"millis":29.1173,"status":"passed"},"step":{"line":11,"prefix":"*","index":0,"text":"def query = {status:'active',gender:'female'}"}},{"result":{"nanos":9943100,"millis":9.9431,"status":"passed"},"step":{"line":12,"prefix":"Given","index":1,"text":"url apiURL+'\/public\/v1\/users'"}},{"result":{"nanos":7759300,"millis":7.7593,"status":"passed"},"step":{"line":13,"prefix":"And","index":2,"text":"params query"}},{"result":{"nanos":991677600,"millis":991.6776,"status":"passed"},"step":{"line":14,"prefix":"When","index":3,"text":"method GET"},"stepLog":"08:45:00.313 request:\n1 > GET https:\/\/gorest.co.in\/public\/v1\/users?gender=female&status=active\n1 > Host: gorest.co.in\n1 > Connection: Keep-Alive\n1 > User-Agent: Apache-HttpClient\/4.5.13 (Java\/11.0.11)\n1 > Accept-Encoding: gzip,deflate\n\n\n08:45:00.998 response time in milliseconds: 683\n1 < 200\n1 < Server: nginx\n1 < Date: Thu, 23 Dec 2021 03:14:59 GMT\n1 < Content-Type: application\/json; charset=utf-8\n1 < Transfer-Encoding: chunked\n1 < Connection: keep-alive\n1 < Vary: Accept-Encoding\n1 < Vary: Origin\n1 < X-Frame-Options: SAMEORIGIN\n1 < X-XSS-Protection: 0\n1 < X-Content-Type-Options: nosniff\n1 < X-Download-Options: noopen\n1 < X-Permitted-Cross-Domain-Policies: none\n1 < Referrer-Policy: strict-origin-when-cross-origin\n1 < ETag: W\/\"8c1cb4b4d13e237c4b302baa9f48ea3d\"\n1 < Cache-Control: max-age=0, private, must-revalidate\n1 < X-Request-Id: edf7a99f-2c62-4168-a8db-27d754a51e16\n1 < X-Runtime: 0.009614\n1 < Strict-Transport-Security: max-age=63072000; includeSubDomains\n{\"meta\":{\"pagination\":{\"total\":527,\"pages\":27,\"page\":1,\"limit\":20,\"links\":{\"previous\":null,\"current\":\"https:\/\/gorest.co.in\/public\/v1\/users?page=1\",\"next\":\"https:\/\/gorest.co.in\/public\/v1\/users?page=2\"}}},\"data\":[{\"id\":2737,\"name\":\"Sulina\",\"email\":\"gq27eoxz45qsgjq@gmail.com\",\"gender\":\"female\",\"status\":\"active\"},{\"id\":2743,\"name\":\"Sulina\",\"email\":\"I2kqL8oFa@gmail.com\",\"gender\":\"female\",\"status\":\"active\"},{\"id\":32,\"name\":\"Chidaakaash Mehrotra\",\"email\":\"mehrotra_chidaakaash@sporer.com\",\"gender\":\"female\",\"status\":\"active\"},{\"id\":36,\"name\":\"Mrs. Daksha Prajapat\",\"email\":\"prajapat_mrs_daksha@zieme-casper.info\",\"gender\":\"female\",\"status\":\"active\"},{\"id\":47,\"name\":\"Meghnath Banerjee\",\"email\":\"meghnath_banerjee@maggio.info\",\"gender\":\"female\",\"status\":\"active\"},{\"id\":49,\"name\":\"Mani Pilla\",\"email\":\"pilla_mani@gerlach-ohara.io\",\"gender\":\"female\",\"status\":\"active\"},{\"id\":63,\"name\":\"Prof. Rageshwari Dwivedi\",\"email\":\"rageshwari_dwivedi_prof@mann.biz\",\"gender\":\"female\",\"status\":\"active\"},{\"id\":64,\"name\":\"Aasha Gowda IV\",\"email\":\"iv_aasha_gowda@howell-boehm.org\",\"gender\":\"female\",\"status\":\"active\"},{\"id\":69,\"name\":\"Vaijayanti Marar\",\"email\":\"marar_vaijayanti@williamson-bauch.co\",\"gender\":\"female\",\"status\":\"active\"},{\"id\":70,\"name\":\"Suma Khatri Sr.\",\"email\":\"khatri_sr_suma@oconnell.biz\",\"gender\":\"female\",\"status\":\"active\"},{\"id\":1628,\"name\":\"Karina\",\"email\":\"karinaK@mail.ru\",\"gender\":\"female\",\"status\":\"active\"},{\"id\":1625,\"name\":\"priyanka suryavanshi\",\"email\":\"pinka@gmail.com\",\"gender\":\"female\",\"status\":\"active\"},{\"id\":2114,\"name\":\"bcvbd\",\"email\":\"xcdf@gmail.com\",\"gender\":\"female\",\"status\":\"active\"},{\"id\":2115,\"name\":\"czxcfsdf\",\"email\":\"csfds@gmail.com\",\"gender\":\"female\",\"status\":\"active\"},{\"id\":2124,\"name\":\"Lera\",\"email\":\"leratest1@gmail.com\",\"gender\":\"female\",\"status\":\"active\"},{\"id\":3104,\"name\":\"Tenaliya Ramakrishna\",\"email\":\"tenaliya.ramakrishna@tenaliya.com\",\"gender\":\"female\",\"status\":\"active\"},{\"id\":18,\"name\":\"Hello team\",\"email\":\"hgu@gmail.com\",\"gender\":\"female\",\"status\":\"active\"},{\"id\":2164,\"name\":\"Dr. Gene Denesik\",\"email\":\"Nelle28@example.org\",\"gender\":\"female\",\"status\":\"active\"},{\"id\":81,\"name\":\"Acharyasuta Khanna\",\"email\":\"acharyasuta_khanna@west.biz\",\"gender\":\"female\",\"status\":\"active\"},{\"id\":90,\"name\":\"Mr. Trilokanath Sharma\",\"email\":\"trilokanath_sharma_mr@weimann.org\",\"gender\":\"female\",\"status\":\"active\"}]}\n"},{"result":{"nanos":22400,"millis":0.0224,"status":"passed"},"step":{"line":15,"prefix":"Then","index":4,"text":"status 200"}},{"result":{"nanos":242800,"millis":0.2428,"status":"passed"},"step":{"line":16,"prefix":"*","index":5,"text":"def jsonResponse = response"}},{"result":{"nanos":25581000,"millis":25.581,"status":"passed"},"step":{"line":17,"prefix":"*","index":6,"text":"print jsonResponse"},"stepLog":"08:45:01.014 [print] {\n  \"meta\": {\n    \"pagination\": {\n      \"total\": 527,\n      \"pages\": 27,\n      \"page\": 1,\n      \"limit\": 20,\n      \"links\": {\n        \"previous\": null,\n        \"current\": \"https:\/\/gorest.co.in\/public\/v1\/users?page=1\",\n        \"next\": \"https:\/\/gorest.co.in\/public\/v1\/users?page=2\"\n      }\n    }\n  },\n  \"data\": [\n    {\n      \"id\": 2737,\n      \"name\": \"Sulina\",\n      \"email\": \"gq27eoxz45qsgjq@gmail.com\",\n      \"gender\": \"female\",\n      \"status\": \"active\"\n    },\n    {\n      \"id\": 2743,\n      \"name\": \"Sulina\",\n      \"email\": \"I2kqL8oFa@gmail.com\",\n      \"gender\": \"female\",\n      \"status\": \"active\"\n    },\n    {\n      \"id\": 32,\n      \"name\": \"Chidaakaash Mehrotra\",\n      \"email\": \"mehrotra_chidaakaash@sporer.com\",\n      \"gender\": \"female\",\n      \"status\": \"active\"\n    },\n    {\n      \"id\": 36,\n      \"name\": \"Mrs. Daksha Prajapat\",\n      \"email\": \"prajapat_mrs_daksha@zieme-casper.info\",\n      \"gender\": \"female\",\n      \"status\": \"active\"\n    },\n    {\n      \"id\": 47,\n      \"name\": \"Meghnath Banerjee\",\n      \"email\": \"meghnath_banerjee@maggio.info\",\n      \"gender\": \"female\",\n      \"status\": \"active\"\n    },\n    {\n      \"id\": 49,\n      \"name\": \"Mani Pilla\",\n      \"email\": \"pilla_mani@gerlach-ohara.io\",\n      \"gender\": \"female\",\n      \"status\": \"active\"\n    },\n    {\n      \"id\": 63,\n      \"name\": \"Prof. Rageshwari Dwivedi\",\n      \"email\": \"rageshwari_dwivedi_prof@mann.biz\",\n      \"gender\": \"female\",\n      \"status\": \"active\"\n    },\n    {\n      \"id\": 64,\n      \"name\": \"Aasha Gowda IV\",\n      \"email\": \"iv_aasha_gowda@howell-boehm.org\",\n      \"gender\": \"female\",\n      \"status\": \"active\"\n    },\n    {\n      \"id\": 69,\n      \"name\": \"Vaijayanti Marar\",\n      \"email\": \"marar_vaijayanti@williamson-bauch.co\",\n      \"gender\": \"female\",\n      \"status\": \"active\"\n    },\n    {\n      \"id\": 70,\n      \"name\": \"Suma Khatri Sr.\",\n      \"email\": \"khatri_sr_suma@oconnell.biz\",\n      \"gender\": \"female\",\n      \"status\": \"active\"\n    },\n    {\n      \"id\": 1628,\n      \"name\": \"Karina\",\n      \"email\": \"karinaK@mail.ru\",\n      \"gender\": \"female\",\n      \"status\": \"active\"\n    },\n    {\n      \"id\": 1625,\n      \"name\": \"priyanka suryavanshi\",\n      \"email\": \"pinka@gmail.com\",\n      \"gender\": \"female\",\n      \"status\": \"active\"\n    },\n    {\n      \"id\": 2114,\n      \"name\": \"bcvbd\",\n      \"email\": \"xcdf@gmail.com\",\n      \"gender\": \"female\",\n      \"status\": \"active\"\n    },\n    {\n      \"id\": 2115,\n      \"name\": \"czxcfsdf\",\n      \"email\": \"csfds@gmail.com\",\n      \"gender\": \"female\",\n      \"status\": \"active\"\n    },\n    {\n      \"id\": 2124,\n      \"name\": \"Lera\",\n      \"email\": \"leratest1@gmail.com\",\n      \"gender\": \"female\",\n      \"status\": \"active\"\n    },\n    {\n      \"id\": 3104,\n      \"name\": \"Tenaliya Ramakrishna\",\n      \"email\": \"tenaliya.ramakrishna@tenaliya.com\",\n      \"gender\": \"female\",\n      \"status\": \"active\"\n    },\n    {\n      \"id\": 18,\n      \"name\": \"Hello team\",\n      \"email\": \"hgu@gmail.com\",\n      \"gender\": \"female\",\n      \"status\": \"active\"\n    },\n    {\n      \"id\": 2164,\n      \"name\": \"Dr. Gene Denesik\",\n      \"email\": \"Nelle28@example.org\",\n      \"gender\": \"female\",\n      \"status\": \"active\"\n    },\n    {\n      \"id\": 81,\n      \"name\": \"Acharyasuta Khanna\",\n      \"email\": \"acharyasuta_khanna@west.biz\",\n      \"gender\": \"female\",\n      \"status\": \"active\"\n    },\n    {\n      \"id\": 90,\n      \"name\": \"Mr. Trilokanath Sharma\",\n      \"email\": \"trilokanath_sharma_mr@weimann.org\",\n      \"gender\": \"female\",\n      \"status\": \"active\"\n    }\n  ]\n}\n \n"},{"result":{"nanos":1345400,"millis":1.3454,"status":"passed"},"step":{"line":18,"prefix":"*","index":7,"text":"def userCount = jsonResponse.data.length"}},{"result":{"nanos":1445000,"millis":1.445,"status":"passed"},"step":{"line":19,"prefix":"*","index":8,"text":"print 'Total users: '+userCount"},"stepLog":"08:45:01.030 [print] Total users: 20 \n"},{"result":{"nanos":20581100,"millis":20.5811,"status":"passed"},"step":{"line":20,"prefix":"*","index":9,"text":"match userCount == 20"}}],"executorName":"main","line":10,"name":"Verify all the users with status equal to active and gender is female","description":"","durationMillis":1087.715,"startTime":1640229299874,"failed":false,"refId":"[2:10]","endTime":1640229301047,"exampleIndex":-1}],"callDepth":0,"name":"GET API with query parameter","description":"","resultDate":"2021-12-23 08:45:01 AM","durationMillis":1087.715,"passedCount":1}